<?xml version="1.0" encoding="UTF-8" standalone="no"?>
<!-- Created with Inkscape (http://www.inkscape.org/) -->

<svg
   xmlns:sketch="http://www.bohemiancoding.com/sketch/ns"
   xmlns:dc="http://purl.org/dc/elements/1.1/"
   xmlns:cc="http://creativecommons.org/ns#"
   xmlns:rdf="http://www.w3.org/1999/02/22-rdf-syntax-ns#"
   xmlns:svg="http://www.w3.org/2000/svg"
   xmlns="http://www.w3.org/2000/svg"
   xmlns:sodipodi="http://sodipodi.sourceforge.net/DTD/sodipodi-0.dtd"
   xmlns:inkscape="http://www.inkscape.org/namespaces/inkscape"
   width="55.523914mm"
   height="51.14661mm"
   viewBox="0 0 55.523914 51.14661"
   version="1.1"
   id="svg943"
   inkscape:version="0.92.4 (5da689c313, 2019-01-14)"
   sodipodi:docname="GitLabLogo_LyraHeartstrings.svg">
  <defs
     id="defs937" />
  <sodipodi:namedview
     id="base"
     pagecolor="#ffffff"
     bordercolor="#666666"
     borderopacity="1.0"
     inkscape:pageopacity="0.0"
     inkscape:pageshadow="2"
     inkscape:zoom="2.8"
     inkscape:cx="177.31445"
     inkscape:cy="71.945112"
     inkscape:document-units="mm"
     inkscape:current-layer="layer1"
     showgrid="false"
     fit-margin-top="0"
     fit-margin-left="0"
     fit-margin-right="0"
     fit-margin-bottom="0"
     inkscape:window-width="1920"
     inkscape:window-height="1137"
     inkscape:window-x="-8"
     inkscape:window-y="-8"
     inkscape:window-maximized="1" />
  <metadata
     id="metadata940">
    <rdf:RDF>
      <cc:Work
         rdf:about="">
        <dc:format>image/svg+xml</dc:format>
        <dc:type
           rdf:resource="http://purl.org/dc/dcmitype/StillImage" />
        <dc:title></dc:title>
      </cc:Work>
    </rdf:RDF>
  </metadata>
  <g
     inkscape:label="Calque 1"
     inkscape:groupmode="layer"
     id="layer1"
     transform="translate(-54.636854,-37.081456)">
    <g
       transform="matrix(0.26458333,0,0,0.26458333,54.584239,36.994715)"
       style="fill:none;fill-rule:evenodd;stroke:none;stroke-width:1"
       sketch:type="MSPage"
       id="g4601">
      <g
         sketch:type="MSLayerGroup"
         id="g4599">
        <g
           sketch:type="MSShapeGroup"
           id="g4597">
          <g
             id="g4595">
            <path
               style="fill:#f3b02d;fill-opacity:1"
               inkscape:connector-curvature="0"
               id="path4575"
               d="m 105.0614,193.655 v 0 l 38.64,-118.921 h -77.28 z" />
            <path
               style="fill:#fc6d26"
               inkscape:connector-curvature="0"
               d=""
               id="path4577" />
            <path
               style="fill:#8cffdb;fill-opacity:1"
               inkscape:connector-curvature="0"
               id="path4579"
               d="M 105.0614,193.6548 66.4214,74.7338 H 12.2684 Z" />
            <path
               style="fill:#fc6d26"
               inkscape:connector-curvature="0"
               d=""
               id="path4581" />
            <path
               style="fill:#ffffff;fill-opacity:1"
               inkscape:connector-curvature="0"
               id="path4583"
               d="m 12.2685,74.7341 v 0 l -11.742,36.139 c -1.071,3.296 0.102,6.907 2.906,8.944 l 101.629,73.838 z" />
            <path
               style="fill:#fc6d26"
               inkscape:connector-curvature="0"
               d=""
               id="path4585" />
            <path
               style="fill:#ace9e9;fill-opacity:1"
               inkscape:connector-curvature="0"
               id="path4587"
               d="m 12.2685,74.7342 h 54.153 L 43.1485,3.1092 c -1.197,-3.686 -6.411,-3.685 -7.608,0 z" />
            <path
               style="fill:#8cffdb;fill-opacity:1"
               inkscape:connector-curvature="0"
               id="path4589"
               d="m 105.0614,193.6548 38.64,-118.921 h 54.153 z" />
            <path
               style="fill:#ace9e9;fill-opacity:1"
               inkscape:connector-curvature="0"
               id="path4591"
               d="m 197.8544,74.7341 v 0 l 11.742,36.139 c 1.071,3.296 -0.102,6.907 -2.906,8.944 l -101.629,73.838 z" />
            <path
               style="fill:#ffffff;fill-opacity:1"
               inkscape:connector-curvature="0"
               id="path4593"
               d="m 197.8544,74.7342 h -54.153 l 23.273,-71.625 c 1.197,-3.686 6.411,-3.685 7.608,0 z" />
          </g>
        </g>
      </g>
    </g>
  </g>
</svg>
